{
  "entry": {
    "main": [
      "./scripts/main.js",
      "./styles/main.scss"
    ],
    "wmb-coverages-app": [
      "./scripts/wmb-coverages-app.js"
    ],
    "customizer": [
      "./scripts/customizer.js"
    ]
  },
  "publicPath": "/app/themes/wmbeck",
  "devUrl": "http://wmbeck.test:2000",
  "proxyUrl": "http://localhost:3002",
  "cacheBusting": "[name]_[hash:8]",
  "watch": [
    "app/**/*.php",
    "config/**/*.php",
    "resources/views/**/*.php",
    "resources/assets/scripts/vue/**/*.vue"
  ]
}
