<svg id="wmb-logo" xmlns="http://www.w3.org/2000/svg" viewBox="0 0 264 110">
  <title>wmb-logo</title>
  <g>
    <path d="M91.0747,57.93766H85.13308v4.17346H91.0747a1.81525,1.81525,0,0,0,1.80418-1.90984v-.35379A1.83623,1.83623,0,0,0,91.0747,57.93766ZM54.95507.07987A54.92015,54.92015,0,1,0,109.8752,55,54.9201,54.9201,0,0,0,54.95507.07987Zm-17.756,67.69032H28.60483l-3.14811-14.82H25.315l-3.1481,14.82H13.57268l-5.69429-24.334H16.0132l2.79432,13.79388h.14087l2.7591-13.79388h7.71058l2.93519,13.79388h.14168l2.61742-13.79388h7.781Zm37.14254,0h-7.7458v-8.772a64.68071,64.68071,0,0,1,.56591-7.70978h-.14168L62.528,67.77019H56.40951L51.88225,51.32367h-.14168a56.75791,56.75791,0,0,1,.63715,7.67456v8.772H45.19783v-24.334H56.23261L59.9114,57.47741h.14088l3.64358-14.04122H74.34163Zm19.38571,0H77.316v-24.334H93.51523c3.67879,0,6.72044,2.47574,6.72044,5.97764,0,3.53632-1.87462,5.02193-4.06781,5.65907v.14088c2.511.5659,4.63372,2.19319,4.63372,6.0841C100.80158,65.188,97.65347,67.77019,93.72734,67.77019ZM92.313,51.00509V50.6513a1.8509,1.8509,0,0,0-1.80417-1.87461H85.13308v4.13824H90.5088A1.83623,1.83623,0,0,0,92.313,51.00509Z" style="fill: #fff"/>
    <g>
      <g>
        <path d="M126.65974,54.52222l-1.44679-6.8125h-.06523l-1.44679,6.8125H119.75l-2.61782-11.18607h3.73963l1.28429,6.341h.06524l1.26789-6.341h3.54472l1.34953,6.341h.06483l1.20306-6.341h3.57714l-2.61782,11.18607Z" style="fill: #fff"/>
        <path d="M134.27266,54.52222V43.33615h3.59355V54.52222Z" style="fill: #fff"/>
        <path d="M140.02978,43.33615h3.59315v8.32452h5.73952v2.86155h-9.33267Z" style="fill: #fff"/>
        <path d="M160.11227,46.58751v.19531h-3.36582V46.718c0-.58511-.40622-1.13821-1.44679-1.13821-.99173,0-1.4796.34178-1.4796.73159,0,1.67451,6.51994.3578,6.60118,4.504,0,2.7799-2.11394,3.90211-4.92667,3.90211-3.1377,0-5.5278-.79723-5.5278-3.98376h3.39785c0,1.20305.69917,1.41437,1.805,1.41437.65036,0,1.57686-.04883,1.57686-.74761,0-1.60967-6.60078-.325-6.60078-4.68254,0-2.60141,2.37369-3.57714,5.02392-3.57714C157.86866,43.14084,160.06345,44.19822,160.11227,46.58751Z" style="fill: #fff"/>
        <path d="M173.41469,48.92958c0,3.82048-2.22761,5.78794-6.04848,5.78794s-6.03207-1.96746-6.03207-5.78794c0-3.82127,2.2112-5.78874,6.03207-5.78874S173.41469,45.10831,173.41469,48.92958Zm-8.40616-.52028v1.04057a2.375,2.375,0,1,0,4.73136,0V48.4093a2.375,2.375,0,1,0-4.73136,0Z" style="fill: #fff"/>
        <path d="M182.94546,54.52222l-4.69895-5.43015v5.43015h-3.30059V43.33615h3.1381l4.69895,5.51179V43.33615h3.30019V54.52222Z" style="fill: #fff"/>
        <path d="M201.89093,54.52222V50.49043a29.7479,29.7479,0,0,1,.26014-3.54512h-.06524l-2.06472,7.57691h-2.81272l-2.08113-7.5601H195.062a26.11849,26.11849,0,0,1,.29255,3.52831v4.03179h-3.30019V43.33615h5.07235l1.69132,6.4547h.06484l1.67451-6.4547h4.89385V54.52222Z" style="fill: #fff"/>
        <path d="M207.01571,54.52222V51.28686h3.44707v3.23536Z" style="fill: #fff"/>
        <path d="M225.34124,46.084a2.42077,2.42077,0,0,1-1.86981,2.60141v.06484a2.559,2.559,0,0,1,2.13,2.79671,3.02666,3.02666,0,0,1-3.25176,2.97522h-7.54409V43.33615h7.44684A2.8832,2.8832,0,0,1,225.34124,46.084Zm-6.94256,1.60967H220.87a.84455.84455,0,0,0,.82925-.87807v-.16249a.85077.85077,0,0,0-.82925-.86207h-2.47134Zm0,4.2271h2.73148a.83454.83454,0,0,0,.82925-.87808v-.16249a.84455.84455,0,0,0-.82925-.87807h-2.73148Z" style="fill: #fff"/>
        <path d="M227.458,43.33615h9.674v2.683h-6.0809v1.544H236.254v2.5694h-5.20282v1.70652h6.195v2.68306H227.458Z" style="fill: #fff"/>
        <path d="M249.91417,47.937h-3.43066a1.87086,1.87086,0,0,0-1.96707-2.11314c-1.52843,0-2.11394,1.05657-2.11394,2.5854v1.04057c0,1.528.61793,2.5846,2.08112,2.5846a1.87141,1.87141,0,0,0,2.11395-2.04831h3.3166c0,3.07286-1.96707,4.73136-5.38172,4.73136-3.82087,0-5.80435-1.96746-5.80435-5.78794,0-3.82127,1.98348-5.78874,5.80435-5.78874C247.78421,43.14084,249.91417,44.81535,249.91417,47.937Z" style="fill: #fff"/>
        <path d="M259.42853,43.33615h4.45521L259.86757,47.937l4.09742,6.58518h-4.2435l-2.32526-4.09743-1.95106,1.59367v2.50376H251.852V43.33615h3.59315v4.78019Z" style="fill: #fff"/>
      </g>
      <path d="M138.01537,65.8252l-3.61932-4.67163-.02461-.03177H133.1043V68.316h1.37935V63.472l3.72977,4.81216.02462.03177h1.15672V61.1218h-1.37939Zm-3.61366-.365-.03242-2.20264.03242.04162Zm3.6956-1.5612.03242,2.14047-.03242-.04163Zm6.12387.17795c-1.36229-.32528-1.60472-.5513-1.60472-1.02495,0-.46976.42723-.77167,1.06308-.77167a3.09187,3.09187,0,0,1,1.85926.70653l.06723.05013.04858-.06839.66276-.93376.04472-.06293-.06023-.04838a4.001,4.001,0,0,0-2.60231-.90214,2.22113,2.22113,0,0,0-2.482,2.12065c0,1.357.88088,1.8313,2.40241,2.19885,1.29615.29911,1.52412.5591,1.52412.99489,0,.50732-.45655.82214-1.16313.82214a3.16259,3.16259,0,0,1-2.16592-.89408l-.06289-.05443-.05353.06363-.7432.88368-.05123.06094.05938.053a4.42319,4.42319,0,0,0,2.987,1.14583c1.57516,0,2.59291-.85617,2.59291-2.18114C146.54339,65.0975,145.87063,64.478,144.22118,64.0769Zm8.65424,1.17429c0,1.2099-.59857,1.87627-1.68541,1.87627-1.07768,0-1.69577-.70213-1.69577-1.92635V61.1218h-1.39941v4.12939a2.84559,2.84559,0,0,0,3.07477,3.17522,2.88739,2.88739,0,0,0,3.10518-3.2353V61.1218h-1.39936Zm7.58412.3666a2.16344,2.16344,0,0,0,1.62628-2.17438,2.21624,2.21624,0,0,0-.60553-1.59367,2.91058,2.91058,0,0,0-2.08743-.72794h-3.21565V68.316h1.39941V65.86542h1.422l1.70323,2.41581.02446.03472h1.65765l-.0924-.12957Zm-1.15713-1.0109h-1.72579V62.41075h1.71578c.88608,0,1.37405.38461,1.37405,1.083C160.66645,64.17786,160.131,64.60689,159.30241,64.60689Zm1.03536,1.00469.01326-.0047.4726.66261ZM129.62041,68.316h1.39936V61.1218h-1.39936Zm98.35694,0h1.39941V61.1218h-1.39941Zm-2.97562-7.142-2.03295,5.20812-2.04231-5.20827-.02036-.052h-1.54438l.04677.11321,2.92239,7.08029.02091.05068H223.546l.021-.05068,2.92238-7.08029.04673-.11321h-1.514Zm-5.51184.04347-.00565-.01371h.34659Zm3.51706,5.37467-.01621-.04088.87663-2.24591Zm3.39009-5.38838h.01656l-.79868,1.935Zm-9.54012,4.414a2.16348,2.16348,0,0,0,1.62633-2.17438,2.21624,2.21624,0,0,0-.60558-1.59367,2.91058,2.91058,0,0,0-2.08743-.72794h-3.21565V68.316H213.974V65.86542h1.422l1.70323,2.41581.02451.03472h1.6576l-.0924-.12957Zm-1.15713-1.0109H213.974V62.41075h1.71578c.88608,0,1.374.38461,1.374,1.083C217.06383,64.17786,216.52844,64.60689,215.69979,64.60689Zm1.03536,1.00469.01326-.0047.4726.66261Zm20.18925.63655-.056-.05668-.05828.05438a2.67722,2.67722,0,0,1-1.96277.892,2.42612,2.42612,0,0,1,0-4.83757,2.70381,2.70381,0,0,1,1.91289.85176l.06213.05768.05558-.064.79323-.9141.05118-.059-.05648-.054a3.73565,3.73565,0,0,0-2.80852-1.11731,3.7178,3.7178,0,0,0-.05,7.43509,3.725,3.725,0,0,0,2.91148-1.27029l.05533-.05753-.05613-.05683Zm3.71766-.925h3.52512V64.05459h-3.52512V62.39074h3.977V61.1218h-5.37636V68.316h5.42679V67.04741h-4.02739Zm8.51242-1.24623c-1.36229-.32528-1.60467-.5513-1.60467-1.02495,0-.46976.42718-.77167,1.063-.77167a3.09182,3.09182,0,0,1,1.85925.70653l.06724.05013.04858-.06839.66276-.93371.04472-.063-.06023-.04838a4.001,4.001,0,0,0-2.60231-.90214,2.22112,2.22112,0,0,0-2.482,2.12065c0,1.35709.881,1.83135,2.4028,2.19885,1.29586.29911,1.52373.55915,1.52373.99489,0,.50732-.45655.82214-1.16313.82214a3.16258,3.16258,0,0,1-2.16592-.89408l-.06289-.05443-.05353.06363-.7432.88368-.05118.06094.05933.053a4.42319,4.42319,0,0,0,2.987,1.14583c1.57516,0,2.593-.85617,2.593-2.18114C251.47674,65.0975,250.80392,64.478,249.15448,64.0769Zm-47.66264,0c-1.36229-.32528-1.60472-.5513-1.60472-1.02495,0-.46976.42723-.77167,1.06307-.77167a3.09187,3.09187,0,0,1,1.85926.70653l.06729.05013.04852-.06839.66276-.93376.04473-.06293-.06024-.04838a4.00087,4.00087,0,0,0-2.60231-.90214,2.22112,2.22112,0,0,0-2.482,2.12065c0,1.35709.881,1.83135,2.4028,2.19885,1.2958.29911,1.52373.5591,1.52373.99489,0,.50732-.45655.82214-1.16313.82214a3.16262,3.16262,0,0,1-2.16593-.89408l-.06288-.05443-.05353.06363-.74321.88368-.05117.06094.05933.053a4.42315,4.42315,0,0,0,2.987,1.14583c1.57515,0,2.593-.85617,2.593-2.18114C203.81409,65.0975,203.14128,64.478,201.49184,64.0769Zm5.38351,1.24623h3.52512V64.05459h-3.52512V62.39074h3.977V61.1218H205.476V68.316h5.42679V67.04741h-4.02739Zm-29.85283.50207-3.61932-4.67163-.02461-.03177h-1.26714V68.316h1.3794V63.472l3.72972,4.81216.02462.03177h1.15668V61.1218h-1.37935Zm-3.61366-.365-.03242-2.20264.03242.04162Zm3.6956-1.5612.03242,2.14047-.03242-.04163Zm8.77346,2.34918-.056-.05668-.05823.05433a2.67887,2.67887,0,0,1-1.96282.89208,2.42612,2.42612,0,0,1,0-4.83757,2.7039,2.7039,0,0,1,1.91289.85176l.06213.05768.05558-.064.79318-.9141.05123-.059-.05648-.054a3.73582,3.73582,0,0,0-2.80852-1.11731,3.7178,3.7178,0,0,0-.05,7.43509,3.725,3.725,0,0,0,2.91148-1.27029l.05528-.05753-.05608-.05683ZM167.60036,61.1209l-.02146-.04913H166.327l-.02146.04913-3.09328,7.08029-.05018.11476H164.607l.02121-.04983.70158-1.64749h3.21554l.69213,1.64709.02106.05023h1.48525l-.05017-.11476ZM163.30478,68.234h-.01741l.86627-1.98278Zm2.46073-2.77611.00681-.01586h.658Zm.0867-.0978,1.081-2.52262,1.09,2.52262Zm2.27829.04137-.33954-.78568.357.78528Zm21.46508-.07834h3.52512V64.05459h-3.52512V62.39074h3.977V61.1218h-5.37636V68.316h5.42674V67.04741h-4.02734Z" style="fill: #fff"/>
    </g>
  </g>
</svg>
